Appliquer la suppression locale – La protection des données statistiques publiques
…
On peut regarder les croisements de quasi-identifiants pour lesquels il n’y a plus d’information sur le département.

Code

donnees_ls_AGE6 %>%
  filter(is.na(DEP)) %>%
  group_by(AGE6, SEXE, DIP7) %>%
  summarise(nb_ind = n(), .groups = "drop")

# A tibble: 34 × 4
   AGE6  SEXE  DIP7  nb_ind
   <fct> <fct> <fct>  <int>
 1 15    1     1          3
 2 15    1     2          3
 3 15    1     3          2
 4 15    1     5          1
 5 15    1     6          2
 6 15    1     7          1
 7 15    1     9          2
 8 15    2     1          4
 9 15    2     2          2
10 15    2     3          2
# ℹ 24 more rows
…
